FPGA - Nahuel García/Parte C/Ejercicio/simulation/qsim/multiplicador_signo.msim.vcd
$comment
	File created using the following command:
		vcd file multiplicador_signo.msim.vcd -direction
$end
$date
	Tue Oct 28 16:54:34 2025
$end
$version
	ModelSim Version 10.1d
$end
$timescale
	1ps
$end
$scope module esquematico_vlg_vec_tst $end
$var reg 1 ! A0 $end
$var reg 1 " A1 $end
$var reg 1 # B0 $end
$var reg 1 $ B1 $end
$var reg 1 % clock $end
$var wire 1 & r0 $end
$var wire 1 ' r1 $end
$var wire 1 ( r2 $end
$var wire 1 ) r3 $end
$var wire 1 * sampler $end
$scope module i1 $end
$var wire 1 + gnd $end
$var wire 1 , vcc $end
$var wire 1 - unknown $end
$var tri1 1 . devclrn $end
$var tri1 1 / devpor $end
$var tri1 1 0 devoe $end
$var wire 1 1 r0~output_o $end
$var wire 1 2 r1~output_o $end
$var wire 1 3 r2~output_o $end
$var wire 1 4 r3~output_o $end
$var wire 1 5 clock~input_o $end
$var wire 1 6 clock~inputclkctrl_outclk $end
$var wire 1 7 B0~input_o $end
$var wire 1 8 inst25~feeder_combout $end
$var wire 1 9 inst25~q $end
$var wire 1 : A0~input_o $end
$var wire 1 ; inst16~feeder_combout $end
$var wire 1 < inst16~q $end
$var wire 1 = inst3~combout $end
$var wire 1 > inst20~q $end
$var wire 1 ? B1~input_o $end
$var wire 1 @ inst24~feeder_combout $end
$var wire 1 A inst24~q $end
$var wire 1 B A1~input_o $end
$var wire 1 C inst17~feeder_combout $end
$var wire 1 D inst17~q $end
$var wire 1 E inst|S~combout $end
$var wire 1 F inst19~q $end
$var wire 1 G inst1|S~0_combout $end
$var wire 1 H inst21~q $end
$var wire 1 I inst2|S~0_combout $end
$var wire 1 J inst18~q $end
$upscope $end
$upscope $end
$enddefinitions $end
#0
$dumpvars
0!
0"
0#
0$
0%
0&
0'
0(
0)
x*
0+
1,
x-
1.
1/
10
01
02
03
04
05
06
07
08
09
0:
0;
0<
0=
0>
0?
0@
0A
0B
0C
0D
0E
0F
0G
0H
0I
0J
$end
#5000
1%
15
16
0*
#10000
0%
05
06
1*
#15000
1%
15
16
0*
#20000
0%
05
06
1*
#25000
1"
1%
1B
15
16
0*
1C
#30000
0%
05
06
1*
#35000
1%
15
16
0*
1D
#40000
0%
05
06
1*
#45000
1%
15
16
0*
#50000
1!
0"
0%
1:
0B
05
06
1*
1;
0C
#55000
1%
15
16
0*
0D
1<
#60000
0%
05
06
1*
#65000
1%
15
16
0*
#70000
0%
05
06
1*
#75000
1"
1%
1B
15
16
0*
1C
#80000
0%
05
06
1*
#85000
1%
15
16
0*
1D
#90000
0%
05
06
1*
#95000
1%
15
16
0*
#100000
1$
0!
0"
0%
1?
0:
0B
05
06
1*
1@
0;
0C
#105000
1%
15
16
0*
0D
1A
0<
1I
#110000
0%
05
06
1*
#115000
1%
15
16
0*
1J
14
1)
#120000
0%
05
06
1*
#125000
1"
1%
1B
15
16
0*
1C
#130000
0%
05
06
1*
#135000
1%
15
16
0*
1D
0I
1G
#140000
0%
05
06
1*
#145000
1%
15
16
0*
0J
1H
04
13
0)
1(
#150000
1!
0"
0%
1:
0B
05
06
1*
1;
0C
#155000
1%
15
16
0*
0D
1<
1I
1E
#160000
0%
05
06
1*
#165000
1%
15
16
0*
1J
1F
14
12
1)
1'
#170000
0%
05
06
1*
#175000
1"
1%
1B
15
16
0*
1C
#180000
0%
05
06
1*
#185000
1%
15
16
0*
1D
0I
0G
#190000
0%
05
06
1*
#195000
1%
15
16
0*
0J
0H
04
03
0)
0(
#200000
1#
0$
0!
0"
0%
17
0?
0:
0B
05
06
1*
18
0@
0;
0C
#205000
1%
15
16
0*
0D
0A
0<
19
0E
#210000
0%
05
06
1*
#215000
1%
15
16
0*
0F
02
0'
#220000
0%
05
06
1*
#225000
1"
1%
1B
15
16
0*
1C
#230000
0%
05
06
1*
#235000
1%
15
16
0*
1D
1I
1G
1E
#240000
0%
05
06
1*
#245000
1%
15
16
0*
1J
1H
1F
14
13
12
1)
1(
1'
#250000
1!
0"
0%
1:
0B
05
06
1*
1;
0C
#255000
1%
15
16
0*
0D
1<
0I
0G
0E
1=
#260000
0%
05
06
1*
#265000
1%
15
16
0*
0J
0H
0F
1>
04
03
02
11
0)
0(
0'
1&
#270000
0%
05
06
1*
#275000
1"
1%
1B
15
16
0*
1C
#280000
0%
05
06
1*
#285000
1%
15
16
0*
1D
1I
1G
1E
#290000
0%
05
06
1*
#295000
1%
15
16
0*
1J
1H
1F
14
13
12
1)
1(
1'
#300000
1$
0!
0"
0%
1?
0:
0B
05
06
1*
1@
0;
0C
#305000
1%
15
16
0*
0D
1A
0<
0G
0E
0=
#310000
0%
05
06
1*
#315000
1%
15
16
0*
0H
0F
0>
03
02
01
0(
0'
0&
#320000
0%
05
06
1*
#325000
1"
1%
1B
15
16
0*
1C
#330000
0%
05
06
1*
#335000
1%
15
16
0*
1D
0I
1E
#340000
0%
05
06
1*
#345000
1%
15
16
0*
0J
1F
04
12
0)
1'
#350000
1!
0"
0%
1:
0B
05
06
1*
1;
0C
#355000
1%
15
16
0*
0D
1<
1I
1G
1=
#360000
0%
05
06
1*
#365000
1%
15
16
0*
1J
1H
1>
14
13
11
1)
1(
1&
#370000
0%
05
06
1*
#375000
1"
1%
1B
15
16
0*
1C
#380000
0%
05
06
1*
#385000
1%
15
16
0*
1D
0I
0G
0E
#390000
0%
05
06
1*
#395000
1%
15
16
0*
0J
0H
0F
04
03
02
0)
0(
0'
#400000
0#
0$
0!
0"
0%
07
0?
0:
0B
05
06
1*
08
0@
0;
0C
#405000
1%
15
16
0*
0D
0A
0<
09
0=
#410000
0%
05
06
1*
#415000
1%
15
16
0*
0>
01
0&
#420000
0%
05
06
1*
#425000
1"
1%
1B
15
16
0*
1C
#430000
0%
05
06
1*
#435000
1%
15
16
0*
1D
#440000
0%
05
06
1*
#445000
1%
15
16
0*
#450000
1!
0"
0%
1:
0B
05
06
1*
1;
0C
#455000
1%
15
16
0*
0D
1<
#460000
0%
05
06
1*
#465000
1%
15
16
0*
#470000
0%
05
06
1*
#475000
1"
1%
1B
15
16
0*
1C
#480000
0%
05
06
1*
#485000
1%
15
16
0*
1D
#490000
0%
05
06
1*
#495000
1%
15
16
0*
#500000
1$
0!
0"
0%
1?
0:
0B
05
06
1*
1@
0;
0C
#505000
1%
15
16
0*
0D
1A
0<
1I
#510000
0%
05
06
1*
#515000
1%
15
16
0*
1J
14
1)
#520000
0%
05
06
1*
#525000
1"
1%
1B
15
16
0*
1C
#530000
0%
05
06
1*
#535000
1%
15
16
0*
1D
0I
1G
#540000
0%
05
06
1*
#545000
1%
15
16
0*
0J
1H
04
13
0)
1(
#550000
1!
0"
0%
1:
0B
05
06
1*
1;
0C
#555000
1%
15
16
0*
0D
1<
1I
1E
#560000
0%
05
06
1*
#565000
1%
15
16
0*
1J
1F
14
12
1)
1'
#570000
0%
05
06
1*
#575000
1"
1%
1B
15
16
0*
1C
#580000
0%
05
06
1*
#585000
1%
15
16
0*
1D
0I
0G
#590000
0%
05
06
1*
#595000
1%
15
16
0*
0J
0H
04
03
0)
0(
#600000
1#
0$
0!
0"
0%
17
0?
0:
0B
05
06
1*
18
0@
0;
0C
#605000
1%
15
16
0*
0D
0A
0<
19
0E
#610000
0%
05
06
1*
#615000
1%
15
16
0*
0F
02
0'
#620000
0%
05
06
1*
#625000
1"
1%
1B
15
16
0*
1C
#630000
0%
05
06
1*
#635000
1%
15
16
0*
1D
1I
1G
1E
#640000
0%
05
06
1*
#645000
1%
15
16
0*
1J
1H
1F
14
13
12
1)
1(
1'
#650000
1!
0"
0%
1:
0B
05
06
1*
1;
0C
#655000
1%
15
16
0*
0D
1<
0I
0G
0E
1=
#660000
0%
05
06
1*
#665000
1%
15
16
0*
0J
0H
0F
1>
04
03
02
11
0)
0(
0'
1&
#670000
0%
05
06
1*
#675000
1"
1%
1B
15
16
0*
1C
#680000
0%
05
06
1*
#685000
1%
15
16
0*
1D
1I
1G
1E
#690000
0%
05
06
1*
#695000
1%
15
16
0*
1J
1H
1F
14
13
12
1)
1(
1'
#700000
1$
0!
0"
0%
1?
0:
0B
05
06
1*
1@
0;
0C
#705000
1%
15
16
0*
0D
1A
0<
0G
0E
0=
#710000
0%
05
06
1*
#715000
1%
15
16
0*
0H
0F
0>
03
02
01
0(
0'
0&
#720000
0%
05
06
1*
#725000
1"
1%
1B
15
16
0*
1C
#730000
0%
05
06
1*
#735000
1%
15
16
0*
1D
0I
1E
#740000
0%
05
06
1*
#745000
1%
15
16
0*
0J
1F
04
12
0)
1'
#750000
1!
0"
0%
1:
0B
05
06
1*
1;
0C
#755000
1%
15
16
0*
0D
1<
1I
1G
1=
#760000
0%
05
06
1*
#765000
1%
15
16
0*
1J
1H
1>
14
13
11
1)
1(
1&
#770000
0%
05
06
1*
#775000
1"
1%
1B
15
16
0*
1C
#780000
0%
05
06
1*
#785000
1%
15
16
0*
1D
0I
0G
0E
#790000
0%
05
06
1*
#795000
1%
15
16
0*
0J
0H
0F
04
03
02
0)
0(
0'
#800000
0#
0$
0!
0"
0%
07
0?
0:
0B
05
06
1*
08
0@
0;
0C
#805000
1%
15
16
0*
0D
0A
0<
09
0=
#810000
0%
05
06
1*
#815000
1%
15
16
0*
0>
01
0&
#820000
0%
05
06
1*
#825000
1"
1%
1B
15
16
0*
1C
#830000
0%
05
06
1*
#835000
1%
15
16
0*
1D
#840000
0%
05
06
1*
#845000
1%
15
16
0*
#850000
1!
0"
0%
1:
0B
05
06
1*
1;
0C
#855000
1%
15
16
0*
0D
1<
#860000
0%
05
06
1*
#865000
1%
15
16
0*
#870000
0%
05
06
1*
#875000
1"
1%
1B
15
16
0*
1C
#880000
0%
05
06
1*
#885000
1%
15
16
0*
1D
#890000
0%
05
06
1*
#895000
1%
15
16
0*
#900000
1$
0!
0"
0%
1?
0:
0B
05
06
1*
1@
0;
0C
#905000
1%
15
16
0*
0D
1A
0<
1I
#910000
0%
05
06
1*
#915000
1%
15
16
0*
1J
14
1)
#920000
0%
05
06
1*
#925000
1"
1%
1B
15
16
0*
1C
#930000
0%
05
06
1*
#935000
1%
15
16
0*
1D
0I
1G
#940000
0%
05
06
1*
#945000
1%
15
16
0*
0J
1H
04
13
0)
1(
#950000
1!
0"
0%
1:
0B
05
06
1*
1;
0C
#955000
1%
15
16
0*
0D
1<
1I
1E
#960000
0%
05
06
1*
#965000
1%
15
16
0*
1J
1F
14
12
1)
1'
#970000
0%
05
06
1*
#975000
1"
1%
1B
15
16
0*
1C
#980000
0%
05
06
1*
#985000
1%
15
16
0*
1D
0I
0G
#990000
0%
05
06
1*
#995000
1%
15
16
0*
0J
0H
04
03
0)
0(
