FPGA - Nahuel García/Parte E/Ejercicio con vhdl/simulation/qsim/Maquina_estado.msim.vcd
$comment
	File created using the following command:
		vcd file Maquina_estado.msim.vcd -direction
$end
$date
	Tue Oct 28 10:20:09 2025
$end
$version
	ModelSim Version 10.1d
$end
$timescale
	1ps
$end
$scope module Maquina_estado_vlg_vec_tst $end
$var reg 1 ! clk $end
$var reg 1 " reset $end
$var reg 1 # x $end
$var wire 1 $ z [3] $end
$var wire 1 % z [2] $end
$var wire 1 & z [1] $end
$var wire 1 ' z [0] $end
$var wire 1 ( sampler $end
$scope module i1 $end
$var wire 1 ) gnd $end
$var wire 1 * vcc $end
$var wire 1 + unknown $end
$var tri1 1 , devclrn $end
$var tri1 1 - devpor $end
$var tri1 1 . devoe $end
$var wire 1 / clk~input_o $end
$var wire 1 0 clk~inputclkctrl_outclk $end
$var wire 1 1 z[0]~output_o $end
$var wire 1 2 z[1]~output_o $end
$var wire 1 3 z[2]~output_o $end
$var wire 1 4 z[3]~output_o $end
$var wire 1 5 x~input_o $end
$var wire 1 6 Selector1~0_combout $end
$var wire 1 7 presente_estado.estado_B~feeder_combout $end
$var wire 1 8 reset~input_o $end
$var wire 1 9 reset~inputclkctrl_outclk $end
$var wire 1 : presente_estado.estado_B~q $end
$var wire 1 ; z~0_combout $end
$var wire 1 < presente_estado.estado_C~q $end
$var wire 1 = Selector9~1_combout $end
$var wire 1 > presente_estado.estado_G~q $end
$var wire 1 ? Selector10~1_combout $end
$var wire 1 @ presente_estado.estado_D~q $end
$var wire 1 A z~1_combout $end
$var wire 1 B presente_estado.estado_A~q $end
$var wire 1 C Selector4~0_combout $end
$var wire 1 D presente_estado.estado_E~q $end
$var wire 1 E presente_estado.estado_F~feeder_combout $end
$var wire 1 F presente_estado.estado_F~q $end
$var wire 1 G Selector10~0_combout $end
$var wire 1 H Selector9~0_combout $end
$var wire 1 I Selector8~0_combout $end
$var wire 1 J Selector7~0_combout $end
$upscope $end
$upscope $end
$enddefinitions $end
#0
$dumpvars
0!
0"
0#
x'
x&
x%
x$
x(
0)
1*
x+
1,
1-
1.
0/
x0
x1
x2
x3
x4
05
x6
x7
08
x9
0:
x;
0<
x=
0>
x?
0@
xA
0B
xC
0D
xE
0F
xG
xH
xI
xJ
$end
#173
09
00
#483
0E
#489
0=
#635
1A
0;
#795
0G
#807
0?
#3645
01
0'
#3681
0J
#3682
0H
#3683
0C
#3688
16
#4058
1I
#4059
17
#6249
12
1&
#6297
04
0$
#6654
13
1%
#20000
1#
0(
#20759
15
#24193
06
#24196
1H
1J
#24199
1C
#24573
0I
#24575
07
#25000
1!
1(
#25819
1/
#26006
10
#26782
02
0&
#26856
14
1$
#27150
03
0%
#50000
0!
0(
#50924
0/
#51097
00
#53487
1D
1B
#53908
1E
0C
#54200
1I
#56796
13
1%
#75000
1!
1(
#75819
1/
#76006
10
#100000
0!
0(
#100924
0/
#101097
00
#103487
1F
0D
#103970
0E
#104049
1;
#104271
0I
#104383
1G
#104887
0H
#104908
1I
#107271
11
1'
#107454
12
1&
#120000
0#
1(
#120864
05
#125000
1!
0(
#125819
1/
#126006
10
#150000
1"
0!
1(
#150819
18
#150924
0/
#151006
19
#151097
00
#153405
0F
0B
#153924
16
#154040
0;
#154211
0J
#154295
17
#154365
0G
#156827
04
0$
#157215
01
0'
#160000
1#
0"
0(
#160759
15
#160924
08
#161097
09
#164193
06
#164196
1H
1J
#164199
1C
#164573
0I
#164575
07
#166782
02
0&
#166856
14
1$
#167150
03
0%
#175000
1!
1(
#175819
1/
#176006
10
#180000
0#
0(
#180864
05
#184545
0J
#184546
0H
#184547
0C
#184552
16
#184922
1I
#184923
17
#187113
12
1&
#187161
04
0$
#187518
13
1%
#200000
0!
1(
#200924
0/
#201097
00
#203487
1B
1:
#203906
06
#203919
1H
1;
#204215
1J
#204284
1G
#204286
0I
#204288
07
#204757
0H
#204778
1I
#206875
14
1$
#207172
11
1'
#220000
1#
0(
#220759
15
#225000
1!
1(
#225819
1/
#226006
10
#250000
0!
0(
#250924
0/
#251097
00
#253487
1<
0:
#253920
1=
#253974
0;
#254282
0G
#257132
01
0'
#275000
1!
1(
#275819
1/
#276006
10
#300000
0!
0(
#300924
0/
#301097
00
#303487
1>
0<
#303976
0=
#304029
0A
#304219
0J
#304491
0I
#304588
1H
#306835
04
0$
#307068
03
0%
#307174
02
0&
#325000
1!
1(
#325819
1/
#326006
10
#350000
0!
0(
#350924
0/
#351097
00
#353487
0B
0>
#354008
1C
#354122
1A
#354305
1J
#356965
14
1$
#360000
0#
1(
#360864
05
#364545
0J
#364546
0H
#364547
0C
#364552
16
#364922
1I
#364923
17
#367113
12
1&
#367161
04
0$
#367518
13
1%
#375000
1!
0(
#375819
1/
#376006
10
#400000
1#
0!
1(
#400759
15
#400924
0/
#401097
00
#403487
1B
1:
#403906
06
#403919
1H
1;
#404215
1J
#404284
1G
#404286
0I
#404288
07
#404757
0H
#404778
1I
#406875
14
1$
#407172
11
1'
#425000
1!
0(
#425819
1/
#426006
10
#450000
0!
1(
#450924
0/
#451097
00
#453487
1<
0:
#453920
1=
#453974
0;
#454282
0G
#457132
01
0'
#460000
0#
0(
#460864
05
#464548
0=
#464551
1?
#464553
1H
#464703
1G
#465063
0I
#467139
02
0&
#467591
11
1'
#467640
03
0%
#475000
1!
1(
#475819
1/
#476006
10
#500000
0!
0(
#500924
0/
#501097
00
#503487
1@
0<
#503889
0A
0J
#503916
0G
#504294
0?
#506505
04
0$
#506766
01
0'
#525000
1!
1(
#525819
1/
#526006
10
#550000
0!
0(
#550924
0/
#551097
00
#553487
0B
0@
#553983
1A
#553988
0H
#554006
16
#554376
1I
#554377
17
#556555
12
1&
#556972
13
1%
#575000
1!
1(
#575819
1/
#576006
10
#600000
1#
0!
0(
#600759
15
#600924
0/
#601097
00
#603487
1B
1:
#603906
06
#603919
1H
1;
#604215
1J
#604284
1G
#604286
0I
#604288
07
#604757
0H
#604778
1I
#606875
14
1$
#607172
11
1'
#620000
0#
1(
#620864
05
#625000
1!
0(
#625819
1/
#626006
10
#650000
0!
1(
#650924
0/
#651097
00
#653487
1<
0:
#653974
0;
#654287
1?
#654826
1H
#654836
0I
#657412
02
0&
#657413
03
0%
#675000
1!
0(
#675819
1/
#676006
10
#700000
0!
1(
#700924
0/
#701097
00
#703487
1@
0<
#703889
0A
0J
#703916
0G
#704294
0?
#706505
04
0$
#706766
01
0'
#725000
1!
0(
#725819
1/
#726006
10
#750000
0!
1(
#750924
0/
#751097
00
#753487
0B
0@
#753983
1A
#753988
0H
#754006
16
#754376
1I
#754377
17
#756555
12
1&
#756972
13
1%
#775000
1!
0(
#775819
1/
#776006
10
#800000
0!
1(
#800924
0/
#801097
00
#803487
1B
1:
#803906
06
#803919
1H
1;
#804215
1J
#804284
1G
#804286
0I
#804288
07
#804757
0H
#804778
1I
#806875
14
1$
#807172
11
1'
#825000
1!
0(
#825819
1/
#826006
10
#850000
0!
1(
#850924
0/
#851097
00
#853487
1<
0:
#853974
0;
#854287
1?
#854826
1H
#854836
0I
#857412
02
0&
#857413
03
0%
#875000
1!
0(
#875819
1/
#876006
10
#880000
1#
1(
#880759
15
#884189
0H
0?
#884195
1=
#884344
0G
#884686
1I
#886756
12
1&
#887194
01
0'
#887282
13
1%
#900000
0!
0(
#900924
0/
#901097
00
#903487
1>
0<
#903976
0=
#904029
0A
#904219
0J
#904491
0I
#904588
1H
#906835
04
0$
#907068
03
0%
#907174
02
0&
#925000
1!
1(
#925819
1/
#926006
10
#950000
0!
0(
#950924
0/
#951097
00
#953487
0B
0>
#954008
1C
#954122
1A
#954305
1J
#956965
14
1$
#975000
1!
1(
#975819
1/
