FPGA - Nahuel García/Parte B/Ejercicio/simulation/qsim/Multiplicador2x2.msim.vcd
$comment
	File created using the following command:
		vcd file Multiplicador2x2.msim.vcd -direction
$end
$date
	Fri Oct 24 13:09:40 2025
$end
$version
	ModelSim Version 10.1d
$end
$timescale
	1ps
$end
$scope module Multiplicador2x2_vlg_vec_tst $end
$var reg 1 ! A0 $end
$var reg 1 " A1 $end
$var reg 1 # B0 $end
$var reg 1 $ B1 $end
$var wire 1 % P0 $end
$var wire 1 & P1 $end
$var wire 1 ' P2 $end
$var wire 1 ( P3 $end
$var wire 1 ) sampler $end
$scope module i1 $end
$var wire 1 * gnd $end
$var wire 1 + vcc $end
$var wire 1 , unknown $end
$var tri1 1 - devclrn $end
$var tri1 1 . devpor $end
$var tri1 1 / devoe $end
$var wire 1 0 P0~output_o $end
$var wire 1 1 P1~output_o $end
$var wire 1 2 P2~output_o $end
$var wire 1 3 P3~output_o $end
$var wire 1 4 A0~input_o $end
$var wire 1 5 B0~input_o $end
$var wire 1 6 inst8~0_combout $end
$var wire 1 7 A1~input_o $end
$var wire 1 8 B1~input_o $end
$var wire 1 9 inst|S~combout $end
$var wire 1 : inst7|cxor~0_combout $end
$var wire 1 ; inst7|cand1~0_combout $end
$upscope $end
$upscope $end
$enddefinitions $end
#0
$dumpvars
0!
0"
0#
0$
x%
x&
x'
x(
x)
0*
1+
x,
1-
1.
1/
x0
x1
x2
x3
04
05
x6
07
08
x9
x:
x;
$end
#3611
06
0;
#4015
0:
#4306
09
#6493
00
0%
#7131
02
0'
#7228
03
0(
#7466
01
0&
#25000
1"
0)
#25766
17
#50000
1!
0"
1)
#50786
14
#50873
07
#75000
1"
0)
#75766
17
#100000
1$
0!
0"
1)
#100766
18
#100873
07
#100893
04
#125000
1"
0)
#125766
17
#129535
1:
#132772
12
1'
#150000
1!
0"
1)
#150786
14
#150873
07
#154774
19
#154888
0:
#158004
02
0'
#158049
11
1&
#175000
1"
0)
#175766
17
#179535
1:
#182772
12
1'
#200000
1#
0$
0!
0"
1)
#200806
15
#200873
07
08
#200893
04
#204158
0:
#204159
09
#204163
1;
#204164
16
#204886
0;
#205215
06
#207274
02
0'
#207319
01
0&
#225000
1"
0)
#225766
17
#229575
19
#232850
11
1&
#250000
1!
0"
1)
#250786
14
#250873
07
#254799
16
#254918
09
#257786
10
1%
#258078
01
0&
#275000
1"
0)
#275766
17
#279575
19
#282850
11
1&
#300000
1$
0!
0"
1)
#300766
18
#300873
07
#300893
04
#305199
09
#305215
06
#308097
00
0%
#308359
01
0&
#325000
1"
0)
#325766
17
#329535
1:
#329575
19
#332772
12
1'
#332850
11
1&
#350000
1!
0"
1)
#350786
14
#350873
07
#354785
0:
#354799
16
#357786
10
1%
#357901
02
0'
#375000
1"
0)
#375766
17
#379524
1;
#379566
09
#382726
01
0&
#383219
13
1(
#400000
0#
0$
0!
0"
1)
#400873
07
08
#400893
04
#400913
05
#404524
06
0;
#404530
19
#405199
09
#407406
00
0%
#408141
03
0(
#425000
1"
0)
#425766
17
#450000
1!
0"
1)
#450786
14
#450873
07
#475000
1"
0)
#475766
17
#500000
1$
0!
0"
1)
#500766
18
#500873
07
#500893
04
#525000
1"
0)
#525766
17
#529535
1:
#532772
12
1'
#550000
1!
0"
1)
#550786
14
#550873
07
#554774
19
#554888
0:
#558004
02
0'
#558049
11
1&
#575000
1"
0)
#575766
17
#579535
1:
#582772
12
1'
#600000
1#
0$
0!
0"
1)
#600806
15
#600873
07
08
#600893
04
#604158
0:
#604159
09
#604163
1;
#604164
16
#604886
0;
#605215
06
#607274
02
0'
#607319
01
0&
#625000
1"
0)
#625766
17
#629575
19
#632850
11
1&
#650000
1!
0"
1)
#650786
14
#650873
07
#654799
16
#654918
09
#657786
10
1%
#658078
01
0&
#675000
1"
0)
#675766
17
#679575
19
#682850
11
1&
#700000
1$
0!
0"
1)
#700766
18
#700873
07
#700893
04
#705199
09
#705215
06
#708097
00
0%
#708359
01
0&
#725000
1"
0)
#725766
17
#729535
1:
#729575
19
#732772
12
1'
#732850
11
1&
#750000
1!
0"
1)
#750786
14
#750873
07
#754785
0:
#754799
16
#757786
10
1%
#757901
02
0'
#775000
1"
0)
#775766
17
#779524
1;
#779566
09
#782726
01
0&
#783219
13
1(
#800000
0#
0$
0!
0"
1)
#800873
07
08
#800893
04
#800913
05
#804524
06
0;
#804530
19
#805199
09
#807406
00
0%
#808141
03
0(
#825000
1"
0)
#825766
17
#850000
1!
0"
1)
#850786
14
#850873
07
#875000
1"
0)
#875766
17
#900000
1$
0!
0"
1)
#900766
18
#900873
07
#900893
04
#925000
1"
0)
#925766
17
#929535
1:
#932772
12
1'
#950000
1!
0"
1)
#950786
14
#950873
07
#954774
19
#954888
0:
#958004
02
0'
#958049
11
1&
#975000
1"
0)
#975766
17
#979535
1:
#982772
12
1'
