FPGA - Nahuel García/Parte D/Ejercicio/simulation/qsim/multiplicador_mod_ca2.msim.vcd
$comment
	File created using the following command:
		vcd file multiplicador_mod_ca2.msim.vcd -direction
$end
$date
	Tue Oct 28 17:59:25 2025
$end
$version
	ModelSim Version 10.1d
$end
$timescale
	1ps
$end
$scope module multiplicador_mod_ca2_vlg_vec_tst $end
$var reg 2 ! A_in [1:0] $end
$var reg 2 " B_in [1:0] $end
$var wire 1 # R_ca2 [3] $end
$var wire 1 $ R_ca2 [2] $end
$var wire 1 % R_ca2 [1] $end
$var wire 1 & R_ca2 [0] $end
$var wire 1 ' R_mod [3] $end
$var wire 1 ( R_mod [2] $end
$var wire 1 ) R_mod [1] $end
$var wire 1 * R_mod [0] $end
$var wire 1 + sampler $end
$scope module i1 $end
$var wire 1 , gnd $end
$var wire 1 - vcc $end
$var wire 1 . unknown $end
$var tri1 1 / devclrn $end
$var tri1 1 0 devpor $end
$var tri1 1 1 devoe $end
$var wire 1 2 R_mod[0]~output_o $end
$var wire 1 3 R_mod[1]~output_o $end
$var wire 1 4 R_mod[2]~output_o $end
$var wire 1 5 R_mod[3]~output_o $end
$var wire 1 6 R_ca2[0]~output_o $end
$var wire 1 7 R_ca2[1]~output_o $end
$var wire 1 8 R_ca2[2]~output_o $end
$var wire 1 9 R_ca2[3]~output_o $end
$var wire 1 : B_in[0]~input_o $end
$var wire 1 ; A_in[0]~input_o $end
$var wire 1 < Mult0|mult_core|result[0]~0_combout $end
$var wire 1 = B_in[1]~input_o $end
$var wire 1 > A_in[1]~input_o $end
$var wire 1 ? Mult0|mult_core|result[1]~1_combout $end
$var wire 1 @ Mult0|mult_core|result[2]~2_combout $end
$var wire 1 A Mult0|mult_core|result[3]~3_combout $end
$var wire 1 B Mult1|mult_core|result[2]~0_combout $end
$var wire 1 C Mult1|mult_core|result[3]~1_combout $end
$upscope $end
$upscope $end
$enddefinitions $end
#0
$dumpvars
b0 !
b0 "
0&
0%
0$
0#
0*
0)
0(
0'
x+
0,
1-
x.
1/
10
11
02
03
04
05
06
07
08
09
0:
0;
0<
0=
0>
0?
0@
0A
0B
0C
$end
#100000
b1 !
1;
0+
#200000
b11 !
b1 "
b10 !
1:
0;
1>
1+
1C
1B
1?
19
18
17
13
1#
1$
1%
1)
#300000
b11 !
1;
0+
1<
16
12
1&
1*
#400000
b11 "
b1 !
b10 "
b0 !
0;
0>
0:
1=
1+
0C
0B
0?
0<
09
08
07
03
06
02
0#
0$
0%
0)
0&
0*
#500000
b1 !
1;
0+
1C
1B
1?
19
18
17
13
1#
1$
1%
1)
#600000
b11 !
b11 "
b10 !
1:
0;
1>
1+
0C
0B
1@
09
08
14
0#
0$
1(
#700000
b11 !
1;
0+
1A
0@
0?
1<
15
04
07
03
16
12
1'
0(
0%
0)
1&
1*
#800000
b1 "
b1 !
b0 "
b0 !
0;
0>
0:
0=
1+
0A
0<
05
06
02
0'
0&
0*
#900000
b1 !
1;
0+
