FPGA - Nahuel García/Parte A/Ejercicio/simulation/qsim/Sumador_Completo.msim.vcd
$comment
	File created using the following command:
		vcd file Sumador_Completo.msim.vcd -direction
$end
$date
	Tue Oct 21 17:54:25 2025
$end
$version
	ModelSim Version 10.1d
$end
$timescale
	1ps
$end
$scope module Sumador_Completo_vlg_vec_tst $end
$var reg 1 ! A $end
$var reg 1 " B $end
$var reg 1 # Cin $end
$var wire 1 $ Cout $end
$var wire 1 % S $end
$var wire 1 & sampler $end
$scope module i1 $end
$var wire 1 ' gnd $end
$var wire 1 ( vcc $end
$var wire 1 ) unknown $end
$var tri1 1 * devclrn $end
$var tri1 1 + devpor $end
$var tri1 1 , devoe $end
$var wire 1 - S~output_o $end
$var wire 1 . Cout~output_o $end
$var wire 1 / Cin~input_o $end
$var wire 1 0 A~input_o $end
$var wire 1 1 B~input_o $end
$var wire 1 2 S~0_combout $end
$var wire 1 3 Cout~0_combout $end
$upscope $end
$upscope $end
$enddefinitions $end
#0
$dumpvars
0!
0"
0#
x$
x%
x&
0'
1(
x)
1*
1+
1,
x-
x.
0/
00
01
x2
x3
$end
#3452
02
#3499
03
#6074
0.
0$
#6160
0-
0%
#40000
1!
0&
#40769
10
#44023
12
#46785
1-
1%
#80000
1"
0!
1&
#80786
11
#80874
00
#120000
1!
0&
#120769
10
#123983
13
#124025
02
#126575
1.
1$
#126733
0-
0%
#160000
1#
0"
0!
1&
#160779
1/
#160874
00
#160893
01
#164345
03
#164361
12
#166920
0.
0$
#167123
1-
1%
#200000
1!
0&
#200769
10
#203983
13
#204025
02
#206575
1.
1$
#206733
0-
0%
#240000
1"
0!
1&
#240786
11
#240874
00
#280000
1!
0&
#280769
10
#284023
12
#286785
1-
1%
#320000
0#
0"
0!
1&
#320874
00
#320884
0/
#320893
01
#324345
02
#324383
03
#326958
0.
0$
#327053
0-
0%
#360000
1!
0&
#360769
10
#364023
12
#366785
1-
1%
#400000
1"
0!
1&
#400786
11
#400874
00
#440000
1!
0&
#440769
10
#443983
13
#444025
02
#446575
1.
1$
#446733
0-
0%
#480000
1#
0"
0!
1&
#480779
1/
#480874
00
#480893
01
#484345
03
#484361
12
#486920
0.
0$
#487123
1-
1%
#520000
1!
0&
#520769
10
#523983
13
#524025
02
#526575
1.
1$
#526733
0-
0%
#560000
1"
0!
1&
#560786
11
#560874
00
#600000
1!
0&
#600769
10
#604023
12
#606785
1-
1%
#640000
0#
0"
0!
1&
#640874
00
#640884
0/
#640893
01
#644345
02
#644383
03
#646958
0.
0$
#647053
0-
0%
#680000
1!
0&
#680769
10
#684023
12
#686785
1-
1%
#720000
1"
0!
1&
#720786
11
#720874
00
#760000
1!
0&
#760769
10
#763983
13
#764025
02
#766575
1.
1$
#766733
0-
0%
#800000
1#
0"
0!
1&
#800779
1/
#800874
00
#800893
01
#804345
03
#804361
12
#806920
0.
0$
#807123
1-
1%
#840000
1!
0&
#840769
10
#843983
13
#844025
02
#846575
1.
1$
#846733
0-
0%
#880000
1"
0!
1&
#880786
11
#880874
00
#920000
1!
0&
#920769
10
#924023
12
#926785
1-
1%
#960000
0#
0"
0!
1&
#960874
00
#960884
0/
#960893
01
#964345
02
#964383
03
#966958
0.
0$
#967053
0-
0%
